…
``` {.r}
#print to console
base::print(pokemon)
```

    ## # A tibble: 696 x 9
    ##    species combat_power hit_points weight_kg weight_bin height_m height_bin
    ##    <chr>          <int>      <int>     <dbl> <chr>         <dbl> <chr>     
    ##  1 krabby            51         15      5.82 normal        0.36  normal    
    ##  2 geodude           85         23     20.9  normal        0.37  normal    
    ##  3 venonat          129         38     20.4  extra_sma…    0.92  normal    
    ##  4 parase…          171         32     19.2  extra_sma…    0.87  normal    
    ##  5 eevee            172         37      4.18 extra_sma…    0.25  normal    
    ##  6 voltorb          131        320     11.2  normal        0.48  normal    
    ##  7 shelld…           96         21      3.49 normal        0.27  normal    
    ##  8 staryu            11         10     36.4  normal        0.8   normal    
    ##  9 nidora…          112         30      9.49 normal        0.51  normal    
    ## 10 poliwag          156         35     11.2  normal        0.580 normal    
    ## # ... with 686 more rows, and 2 more variables: fast_attack <chr>,
    ## #   charge_attack <chr>
…
#dplyr::select
# save as an object for later
pokemon_hp <- dplyr::select( 
  pokemon,  # the first argument is always the data
  hit_points,  # the other arguments are column names you want to keep
  species
)  

# note the column names are unquoted, if you have a promblematic column name 
# that has spaces or starts with a number you can encase it in back ticks eg
# `101 this is a silly column name`
print(pokemon_hp)
```

    ## # A tibble: 696 x 2
    ##    hit_points species     
    ##         <int> <chr>       
    ##  1         15 krabby      
    ##  2         23 geodude     
    ##  3         38 venonat     
    ##  4         32 parasect    
    ##  5         37 eevee       
    ##  6        320 voltorb     
    ##  7         21 shellder    
    ##  8         10 staryu      
    ##  9         30 nidoran_male
    ## 10         35 poliwag     
    ## # ... with 686 more rows

``` {.r}
#select by dropping columns
dplyr::select(
  pokemon,  # data frame first
  -hit_points, -combat_power, -fast_attack, -weight_bin  # columns to drop
)
```

    ## # A tibble: 696 x 5
    ##    species      weight_kg height_m height_bin charge_attack
    ##    <chr>            <dbl>    <dbl> <chr>      <chr>        
    ##  1 krabby            5.82    0.36  normal     vice_grip    
    ##  2 geodude          20.9     0.37  normal     rock_tomb    
    ##  3 venonat          20.4     0.92  normal     poison_fang  
    ##  4 parasect         19.2     0.87  normal     x-scissor    
    ##  5 eevee             4.18    0.25  normal     body_slam    
    ##  6 voltorb          11.2     0.48  normal     discharge    
    ##  7 shellder          3.49    0.27  normal     bubble_beam  
    ##  8 staryu           36.4     0.8   normal     bubble_beam  
    ##  9 nidoran_male      9.49    0.51  normal     body_slam    
    ## 10 poliwag          11.2     0.580 normal     body_slam    
    ## # ... with 686 more rows

``` {.r}
#select columns with similar names
dplyr::select(pokemon, starts_with("weight"))
```

    ## # A tibble: 696 x 2
    ##    weight_kg weight_bin 
    ##        <dbl> <chr>      
    ##  1      5.82 normal     
    ##  2     20.9  normal     
    ##  3     20.4  extra_small
    ##  4     19.2  extra_small
    ##  5      4.18 extra_small
    ##  6     11.2  normal     
    ##  7      3.49 normal     
    ##  8     36.4  normal     
    ##  9      9.49 normal     
    ## 10     11.2  normal     
    ## # ... with 686 more rows

``` {.r}
dplyr::select(pokemon, contains("bin"))
```

    ## # A tibble: 696 x 2
    ##    weight_bin  height_bin
    ##    <chr>       <chr>     
    ##  1 normal      normal    
    ##  2 normal      normal    
    ##  3 extra_small normal    
    ##  4 extra_small normal    
    ##  5 extra_small normal    
    ##  6 normal      normal    
    ##  7 normal      normal    
    ##  8 normal      normal    
    ##  9 normal      normal    
    ## 10 normal      normal    
    ## # ... with 686 more rows
…
``` {.r}
#now everything except for one species
dplyr::filter(pokemon, species != "pidgey")  # not equal to
```

    ## # A tibble: 610 x 9
    ##    species combat_power hit_points weight_kg weight_bin height_m height_bin
    ##    <chr>          <int>      <int>     <dbl> <chr>         <dbl> <chr>     
    ##  1 krabby            51         15      5.82 normal        0.36  normal    
    ##  2 geodude           85         23     20.9  normal        0.37  normal    
    ##  3 venonat          129         38     20.4  extra_sma…    0.92  normal    
    ##  4 parase…          171         32     19.2  extra_sma…    0.87  normal    
    ##  5 eevee            172         37      4.18 extra_sma…    0.25  normal    
    ##  6 voltorb          131        320     11.2  normal        0.48  normal    
    ##  7 shelld…           96         21      3.49 normal        0.27  normal    
    ##  8 staryu            11         10     36.4  normal        0.8   normal    
    ##  9 nidora…          112         30      9.49 normal        0.51  normal    
    ## 10 poliwag          156         35     11.2  normal        0.580 normal    
    ## # ... with 600 more rows, and 2 more variables: fast_attack <chr>,
    ## #   charge_attack <chr>

``` {.r}
#filter on three species
dplyr::filter(
  pokemon,
  species %in% c("staryu", "psyduck", "charmander")
)
```

    ## # A tibble: 39 x 9
    ##    species combat_power hit_points weight_kg weight_bin height_m height_bin
    ##    <chr>          <int>      <int>     <dbl> <chr>         <dbl> <chr>     
    ##  1 staryu            11         10      36.4 normal         0.8  normal    
    ##  2 psyduck           97         26      26.0 extra_lar…     0.9  normal    
    ##  3 psyduck           41         17      23.6 normal         0.91 normal    
    ##  4 staryu           225         25      36.4 normal         0.73 normal    
    ##  5 staryu           154         23      18.8 extra_sma…     0.59 extra_sma…
    ##  6 staryu            11         10      18.9 extra_sma…     0.68 normal    
    ##  7 staryu           260         29      44.2 extra_lar…     0.85 normal    
    ##  8 psyduck           44         19      23.4 normal         0.72 normal    
    ##  9 staryu           112         19      28.1 normal         0.78 normal    
    ## 10 staryu           144         23      50.4 extra_lar…     0.97 normal    
    ## # ... with 29 more rows, and 2 more variables: fast_attack <chr>,
    ## #   charge_attack <chr>
…
# now to mutate with some extra information
dplyr::mutate(
  pokemon_power_hp  # our new, subsetted data frame
  ,power_index = combat_power * hit_points  # new column from old ones
  ,caught = 1  # new column will fill entirely with number
  ,area = "kanto"  # will fill entirely with this text 
)
```

    ## # A tibble: 696 x 6
    ##    species      combat_power hit_points power_index caught area 
    ##    <chr>               <int>      <int>       <int>  <dbl> <chr>
    ##  1 krabby                 51         15         765      1 kanto
    ##  2 geodude                85         23        1955      1 kanto
    ##  3 venonat               129         38        4902      1 kanto
    ##  4 parasect              171         32        5472      1 kanto
    ##  5 eevee                 172         37        6364      1 kanto
    ##  6 voltorb               131        320       41920      1 kanto
    ##  7 shellder               96         21        2016      1 kanto
    ##  8 staryu                 11         10         110      1 kanto
    ##  9 nidoran_male          112         30        3360      1 kanto
    ## 10 poliwag               156         35        5460      1 kanto
    ## # ... with 686 more rows
…
dplyr::mutate(
  pokemon_hp,
  common = if_else(
    condition = species %in% c(  # if this condition is met...
      "pidgey", "rattata", "drowzee", 
      "spearow", "magikarp", "weedle", 
      "staryu", "psyduck", "eevee"
    ),
    true = "yes",  # ...fill column with this string
    false = "no"  # ...otherwise fill it with this string
  )
)
```

    ## # A tibble: 696 x 3
    ##    hit_points species      common
    ##         <int> <chr>        <chr> 
    ##  1         15 krabby       no    
    ##  2         23 geodude      no    
    ##  3         38 venonat      no    
    ##  4         32 parasect     no    
    ##  5         37 eevee        yes   
    ##  6        320 voltorb      no    
    ##  7         21 shellder     no    
    ##  8         10 staryu       yes   
    ##  9         30 nidoran_male no    
    ## 10         35 poliwag      no    
    ## # ... with 686 more rows
…
#dplyr::arrange
dplyr::arrange(
  pokemon,  # again, data first
  height_m  # column to order by, default is ascending
)
```

    ## # A tibble: 696 x 9
    ##    species combat_power hit_points weight_kg weight_bin height_m height_bin
    ##    <chr>          <int>      <int>     <dbl> <chr>         <dbl> <chr>     
    ##  1 diglett           79         10      0.79 normal         0.2  normal    
    ##  2 pidgey           254         44      0.82 extra_sma…     0.21 extra_sma…
    ##  3 rattata           23         11      1.52 extra_sma…     0.22 extra_sma…
    ##  4 pidgey           229         43      0.85 extra_sma…     0.22 extra_sma…
    ##  5 weedle            17         13      2.25 extra_sma…     0.22 extra_sma…
    ##  6 spearow          296         47      0.69 extra_sma…     0.22 extra_sma…
    ##  7 spearow           89         26      1.06 extra_sma…     0.22 extra_sma…
    ##  8 pidgey           256         46      0.82 extra_sma…     0.23 normal    
    ##  9 rattata           64         17      2.7  normal         0.23 normal    
    ## 10 diglett           64         10      1.05 extra_lar…     0.23 normal    
    ## # ... with 686 more rows, and 2 more variables: fast_attack <chr>,
    ## #   charge_attack <chr>

``` {.r}
#And in reverse order (tallest first):
dplyr::arrange(pokemon, desc(height_m))  # descending
```

    ## # A tibble: 696 x 9
    ##    species combat_power hit_points weight_kg weight_bin height_m height_bin
    ##    <chr>          <int>      <int>     <dbl> <chr>         <dbl> <chr>     
    ##  1 onix             299         38    192.   normal         9.52 normal    
    ##  2 gyarad…          955         94    177.   normal         5.58 normal    
    ##  3 pidgey            76         26      1.25 extra_sma…     2.5  normal    
    ##  4 ekans            206         35     11.6  extra_lar…     2.46 normal    
    ##  5 lapras          1636        161    163.   extra_sma…     2.22 normal    
    ##  6 snorlax          300         85    492.   normal         2.11 normal    
    ##  7 dratini          298         42      4.4  extra_lar…     2.08 normal    
    ##  8 dratini          332         44      4.75 extra_lar…     1.99 normal    
    ##  9 ekans             95         24      5.2  normal         1.93 normal    
    ## 10 dratini          316         40      3.13 normal         1.91 normal    
    ## # ... with 686 more rows, and 2 more variables: fast_attack <chr>,
    ## #   charge_attack <chr>
…
``` {.r}
# 
# Note that you can group by more than one thing as well. We can group on 
# the weight_bin category within the type1 category, for example.

pokemon_join %>%
  dplyr::group_by(type1, weight_bin) %>% 
  dplyr::summarise(
    mean_weight = mean(weight_kg),
    count = n()
  )
```

    ## # A tibble: 40 x 4
    ## # Groups:   type1 [?]
    ##    type1    weight_bin  mean_weight count
    ##    <chr>    <chr>             <dbl> <int>
    ##  1 bug      extra_large       29.1      9
    ##  2 bug      extra_small        8.98    16
    ##  3 bug      normal            10.6     38
    ##  4 dragon   extra_large        4.58     2
    ##  5 dragon   normal             2.95     2
    ##  6 electric extra_large       18.7      3
    ##  7 electric extra_small        5.74     2
    ##  8 electric normal            18.5      7
    ##  9 fairy    extra_large        9.47     2
    ## 10 fairy    normal             7.96     3
    ## # ... with 30 more rows
…
